; <<>> DiG 9.11.2-P1-RedHat-9.11.2-1.P1.fc27 <<>> +all NS .
;; global options: +cmd
;; Got answer:
;; ->>HEADER<<- opcode: QUERY, status: NOERROR, id: 65469
;; flags: qr rd ra; QUERY: 1, ANSWER: 13, AUTHORITY: 0, ADDITIONAL: 27

;; OPT PSEUDOSECTION:
; EDNS: version: 0, flags:; udp: 4096
;; QUESTION SECTION:
;.                              IN      NS

;; ANSWER SECTION:
.                       78430   IN      NS      i.root-servers.net.
.                       78430   IN      NS      f.root-servers.net.
.                       78430   IN      NS      k.root-servers.net.
.                       78430   IN      NS      g.root-servers.net.
.                       78430   IN      NS      a.root-servers.net.
.                       78430   IN      NS      l.root-servers.net.
.                       78430   IN      NS      e.root-servers.net.
.                       78430   IN      NS      c.root-servers.net.
.                       78430   IN      NS      h.root-servers.net.
.                       78430   IN      NS      m.root-servers.net.
.                       78430   IN      NS      b.root-servers.net.
.                       78430   IN      NS      d.root-servers.net.
.                       78430   IN      NS      j.root-servers.net.

;; ADDITIONAL SECTION:
i.root-servers.net.     82483   IN      A       192.36.148.17
i.root-servers.net.     82483   IN      AAAA    2001:7fe::53
l.root-servers.net.     82483   IN      A       199.7.83.42
l.root-servers.net.     82483   IN      AAAA    2001:500:9f::42
d.root-servers.net.     82483   IN      A       199.7.91.13
d.root-servers.net.     82483   IN      AAAA    2001:500:2d::d
h.root-servers.net.     82483   IN      A       198.97.190.53
h.root-servers.net.     82483   IN      AAAA    2001:500:1::53
f.root-servers.net.     82483   IN      A       192.5.5.241
f.root-servers.net.     82483   IN      AAAA    2001:500:2f::f
c.root-servers.net.     82483   IN      A       192.33.4.12
c.root-servers.net.     82483   IN      AAAA    2001:500:2::c
g.root-servers.net.     82483   IN      A       192.112.36.4
g.root-servers.net.     82483   IN      AAAA    2001:500:12::d0d
e.root-servers.net.     82483   IN      A       192.203.230.10
e.root-servers.net.     82483   IN      AAAA    2001:500:a8::e
a.root-servers.net.     82483   IN      A       198.41.0.4
a.root-servers.net.     82483   IN      AAAA    2001:503:ba3e::2:30
j.root-servers.net.     82483   IN      A       192.58.128.30
j.root-servers.net.     82483   IN      AAAA    2001:503:c27::2:30
k.root-servers.net.     82483   IN      A       193.0.14.129
k.root-servers.net.     82483   IN      AAAA    2001:7fd::1
m.root-servers.net.     82483   IN      A       202.12.27.33
m.root-servers.net.     82483   IN      AAAA    2001:dc3::35
b.root-servers.net.     82483   IN      A       199.9.14.201
b.root-servers.net.     82483   IN      AAAA    2001:500:200::b

;; Query time: 4 msec
;; SERVER: 132.248.204.1#53(132.248.204.1)
;; WHEN: Tue Mar 06 14:04:26 CST 2018
;; MSG SIZE  rcvd: 811

## Buscando com en i.root-servers.net.

; <<>> DiG 9.11.2-P1-RedHat-9.11.2-1.P1.fc27 <<>> +all com. @i.root-servers.net.
;; global options: +cmd
;; Got answer:
;; ->>HEADER<<- opcode: QUERY, status: NOERROR, id: 19636
;; flags: qr rd; QUERY: 1, ANSWER: 0, AUTHORITY: 13, ADDITIONAL: 27
;; WARNING: recursion requested but not available

;; OPT PSEUDOSECTION:
; EDNS: version: 0, flags:; udp: 4096
;; QUESTION SECTION:
;com.                           IN      A

;; AUTHORITY SECTION:
com.                    172800  IN      NS      h.gtld-servers.net.
com.                    172800  IN      NS      j.gtld-servers.net.
com.                    172800  IN      NS      c.gtld-servers.net.
com.                    172800  IN      NS      i.gtld-servers.net.
com.                    172800  IN      NS      l.gtld-servers.net.
com.                    172800  IN      NS      m.gtld-servers.net.
com.                    172800  IN      NS      g.gtld-servers.net.
com.                    172800  IN      NS      d.gtld-servers.net.
com.                    172800  IN      NS      f.gtld-servers.net.
com.                    172800  IN      NS      b.gtld-servers.net.
com.                    172800  IN      NS      k.gtld-servers.net.
com.                    172800  IN      NS      e.gtld-servers.net.
com.                    172800  IN      NS      a.gtld-servers.net.

;; ADDITIONAL SECTION:
a.gtld-servers.net.     172800  IN      A       192.5.6.30
a.gtld-servers.net.     172800  IN      AAAA    2001:503:a83e::2:30
b.gtld-servers.net.     172800  IN      A       192.33.14.30
b.gtld-servers.net.     172800  IN      AAAA    2001:503:231d::2:30
c.gtld-servers.net.     172800  IN      A       192.26.92.30
c.gtld-servers.net.     172800  IN      AAAA    2001:503:83eb::30
d.gtld-servers.net.     172800  IN      A       192.31.80.30
d.gtld-servers.net.     172800  IN      AAAA    2001:500:856e::30
e.gtld-servers.net.     172800  IN      A       192.12.94.30
e.gtld-servers.net.     172800  IN      AAAA    2001:502:1ca1::30
f.gtld-servers.net.     172800  IN      A       192.35.51.30
f.gtld-servers.net.     172800  IN      AAAA    2001:503:d414::30
g.gtld-servers.net.     172800  IN      A       192.42.93.30
g.gtld-servers.net.     172800  IN      AAAA    2001:503:eea3::30
h.gtld-servers.net.     172800  IN      A       192.54.112.30
h.gtld-servers.net.     172800  IN      AAAA    2001:502:8cc::30
i.gtld-servers.net.     172800  IN      A       192.43.172.30
i.gtld-servers.net.     172800  IN      AAAA    2001:503:39c1::30
j.gtld-servers.net.     172800  IN      A       192.48.79.30
j.gtld-servers.net.     172800  IN      AAAA    2001:502:7094::30
k.gtld-servers.net.     172800  IN      A       192.52.178.30
k.gtld-servers.net.     172800  IN      AAAA    2001:503:d2d::30
l.gtld-servers.net.     172800  IN      A       192.41.162.30
l.gtld-servers.net.     172800  IN      AAAA    2001:500:d937::30
m.gtld-servers.net.     172800  IN      A       192.55.83.30
m.gtld-servers.net.     172800  IN      AAAA    2001:501:b1f9::30

;; Query time: 146 msec
;; SERVER: 192.36.148.17#53(192.36.148.17)
;; WHEN: Tue Mar 06 14:05:11 CST 2018
;; MSG SIZE  rcvd: 828

## Buscando pixar.com en a.gtld-servers.net.

; <<>> DiG 9.11.2-P1-RedHat-9.11.2-1.P1.fc27 <<>> +all pixar.com. @a.gtld-servers.net.
;; global options: +cmd
;; Got answer:
;; ->>HEADER<<- opcode: QUERY, status: NOERROR, id: 24833
;; flags: qr rd; QUERY: 1, ANSWER: 0, AUTHORITY: 4, ADDITIONAL: 7
;; WARNING: recursion requested but not available

;; OPT PSEUDOSECTION:
; EDNS: version: 0, flags:; udp: 4096
;; QUESTION SECTION:
;pixar.com.                     IN      A

;; AUTHORITY SECTION:
pixar.com.              172800  IN      NS      andre.pixar.com.
pixar.com.              172800  IN      NS      wallyb.pixar.com.
pixar.com.              172800  IN      NS      knick.pixar.com.
pixar.com.              172800  IN      NS      knack.pixar.com.

;; ADDITIONAL SECTION:
andre.pixar.com.        172800  IN      A       139.104.180.53
wallyb.pixar.com.       172800  IN      A       139.104.180.65
wallyb.pixar.com.       172800  IN      AAAA    2620:79::a113:53
knick.pixar.com.        172800  IN      A       139.104.181.65
knack.pixar.com.        172800  IN      A       139.104.182.65
knack.pixar.com.        172800  IN      AAAA    2620:79:4::a113:53

;; Query time: 53 msec
;; SERVER: 192.5.6.30#53(192.5.6.30)
;; WHEN: Tue Mar 06 14:06:21 CST 2018
;; MSG SIZE  rcvd: 239

## Buscando www.pixar.com en andre.pixar.com. 

; <<>> DiG 9.11.2-P1-RedHat-9.11.2-1.P1.fc27 <<>> +all www.pixar.com. @andre.pixar.com.
;; global options: +cmd
;; Got answer:
;; ->>HEADER<<- opcode: QUERY, status: NOERROR, id: 29328
;; flags: qr aa rd; QUERY: 1, ANSWER: 1, AUTHORITY: 0, ADDITIONAL: 1
;; WARNING: recursion requested but not available

;; OPT PSEUDOSECTION:
; EDNS: version: 0, flags:; udp: 4096
;; QUESTION SECTION:
;www.pixar.com.                 IN      A

;; ANSWER SECTION:
www.pixar.com.          3600    IN      CNAME   ext-cust.squarespace.com.

;; Query time: 77 msec
;; SERVER: 139.104.180.53#53(139.104.180.53)
;; WHEN: Tue Mar 06 14:06:55 CST 2018
;; MSG SIZE  rcvd: 77

## Buscando www.pixar.com en ext-cust.squarespace.com. 


; <<>> DiG 9.11.2-P1-RedHat-9.11.2-1.P1.fc27 <<>> +all www.pixar.com. ext-cust.squarespace.com.
;; global options: +cmd
;; Got answer:
;; ->>HEADER<<- opcode: QUERY, status: NOERROR, id: 27301
;; flags: qr rd ra; QUERY: 1, ANSWER: 5, AUTHORITY: 8, ADDITIONAL: 9

;; OPT PSEUDOSECTION:
; EDNS: version: 0, flags:; udp: 4096
;; QUESTION SECTION:
;www.pixar.com.                 IN      A

;; ANSWER SECTION:
www.pixar.com.          542     IN      CNAME   ext-cust.squarespace.com.
ext-cust.squarespace.com. 4303  IN      A       198.49.23.145
ext-cust.squarespace.com. 4303  IN      A       198.49.23.144
ext-cust.squarespace.com. 4303  IN      A       198.185.159.145
ext-cust.squarespace.com. 4303  IN      A       198.185.159.144

;; AUTHORITY SECTION:
squarespace.com.        17112   IN      NS      ns3.p06.dynect.net.
squarespace.com.        17112   IN      NS      dns2.p06.nsone.net.
squarespace.com.        17112   IN      NS      ns1.p06.dynect.net.
squarespace.com.        17112   IN      NS      dns1.p06.nsone.net.
squarespace.com.        17112   IN      NS      dns3.p06.nsone.net.
squarespace.com.        17112   IN      NS      ns4.p06.dynect.net.
squarespace.com.        17112   IN      NS      ns2.p06.dynect.net.
squarespace.com.        17112   IN      NS      dns4.p06.nsone.net.

;; ADDITIONAL SECTION:
dns4.p06.nsone.net.     13276   IN      A       198.51.45.70
dns2.p06.nsone.net.     13276   IN      A       198.51.45.6
dns1.p06.nsone.net.     13276   IN      A       198.51.44.6
ns3.p06.dynect.net.     13271   IN      A       208.78.71.6
ns2.p06.dynect.net.     13271   IN      A       204.13.250.6
ns1.p06.dynect.net.     13271   IN      A       208.78.70.6
ns4.p06.dynect.net.     13271   IN      A       204.13.251.6
dns3.p06.nsone.net.     13276   IN      A       198.51.44.70

;; Query time: 3 msec
;; SERVER: 132.248.204.1#53(132.248.204.1)
;; WHEN: Wed Mar 21 14:50:18 CST 2018
;; MSG SIZE  rcvd: 441

;; Got answer:
;; ->>HEADER<<- opcode: QUERY, status: NOERROR, id: 10713
;; flags: qr rd ra; QUERY: 1, ANSWER: 4, AUTHORITY: 8, ADDITIONAL: 9

;; OPT PSEUDOSECTION:
; EDNS: version: 0, flags:; udp: 4096
;; QUESTION SECTION:
;ext-cust.squarespace.com.      IN      A

;; ANSWER SECTION:
ext-cust.squarespace.com. 4303  IN      A       198.185.159.144
ext-cust.squarespace.com. 4303  IN      A       198.49.23.145
ext-cust.squarespace.com. 4303  IN      A       198.49.23.144
ext-cust.squarespace.com. 4303  IN      A       198.185.159.145

;; AUTHORITY SECTION:
squarespace.com.        17112   IN      NS      dns3.p06.nsone.net.
squarespace.com.        17112   IN      NS      dns1.p06.nsone.net.
squarespace.com.        17112   IN      NS      ns1.p06.dynect.net.
squarespace.com.        17112   IN      NS      ns4.p06.dynect.net.
squarespace.com.        17112   IN      NS      ns2.p06.dynect.net.
squarespace.com.        17112   IN      NS      dns4.p06.nsone.net.
squarespace.com.        17112   IN      NS      ns3.p06.dynect.net.
squarespace.com.        17112   IN      NS      dns2.p06.nsone.net.

;; ADDITIONAL SECTION:
dns4.p06.nsone.net.     13276   IN      A       198.51.45.70
dns2.p06.nsone.net.     13276   IN      A       198.51.45.6
dns1.p06.nsone.net.     13276   IN      A       198.51.44.6
ns3.p06.dynect.net.     13271   IN      A       208.78.71.6
ns2.p06.dynect.net.     13271   IN      A       204.13.250.6
ns1.p06.dynect.net.     13271   IN      A       208.78.70.6
ns4.p06.dynect.net.     13271   IN      A       204.13.251.6
dns3.p06.nsone.net.     13276   IN      A       198.51.44.70

;; Query time: 3 msec
;; SERVER: 132.248.204.1#53(132.248.204.1)
;; WHEN: Wed Mar 21 14:50:18 CST 2018
;; MSG SIZE  rcvd: 417



